src/tb.vcd
$date
	Sun Mar 19 22:35:46 2023
$end
$version
	Icarus Verilog
$end
$timescale
	1ps
$end
$scope module tb $end
$var wire 1 ! clk $end
$var wire 1 " interrupt $end
$var wire 12 # io_out [11:0] $end
$var wire 1 $ ready $end
$var wire 1 % rst $end
$var wire 1 & skip $end
$var wire 12 ' sram_out [11:0] $end
$var wire 8 ( outputs [7:0] $end
$var wire 8 ) inputs [7:0] $end
$var wire 1 * data_write $end
$var wire 12 + data_out [11:0] $end
$var reg 4 , din [3:0] $end
$var reg 1 - io $end
$var reg 5 . io_sel [4:0] $end
$var reg 12 / latch [11:0] $end
$var reg 8 0 tmp [7:0] $end
$scope module cpu $end
$var wire 8 1 io_in [7:0] $end
$var wire 1 2 strobe_out $end
$var wire 1 3 reset $end
$var wire 8 4 io_out [7:0] $end
$var wire 1 5 interrupt $end
$var wire 1 6 ext_skip $end
$var wire 4 7 ext_in [3:0] $end
$var wire 1 8 clk $end
$var wire 12 9 c_pc_inc [11:0] $end
$var wire 2 : bus_index [1:0] $end
$var wire 6 ; addr_out_mux [5:0] $end
$var reg 12 < addr [11:0] $end
$var reg 12 = c_a [11:0] $end
$var reg 12 > c_data [11:0] $end
$var reg 12 ? c_data_addr [11:0] $end
$var reg 12 @ c_ins [11:0] $end
$var reg 1 A c_int_enable $end
$var reg 1 B c_int_pending $end
$var reg 1 C c_io_ready $end
$var reg 1 D c_io_skip $end
$var reg 1 E c_l $end
$var reg 12 F c_mq [11:0] $end
$var reg 12 G c_pc [11:0] $end
$var reg 3 H c_phase [2:0] $end
$var reg 3 I c_super [2:0] $end
$var reg 1 J clear_int_pending $end
$var reg 4 K data_out [3:0] $end
$var reg 1 L next_io $end
$var reg 12 M r_a [11:0] $end
$var reg 12 N r_data [11:0] $end
$var reg 12 O r_data_addr [11:0] $end
$var reg 12 P r_ins [11:0] $end
$var reg 1 Q r_int_enable $end
$var reg 1 R r_int_pending $end
$var reg 1 S r_io_ready $end
$var reg 1 T r_io_skip $end
$var reg 1 U r_l $end
$var reg 12 V r_mq [11:0] $end
$var reg 12 W r_pc [11:0] $end
$var reg 3 X r_phase [2:0] $end
$var reg 3 Y r_super [2:0] $end
$var reg 12 Z wdata [11:0] $end
$var reg 1 [ write $end
$scope begin pp $end
$upscope $end
$scope begin rr $end
$var reg 1 \ cond $end
$upscope $end
$upscope $end
$upscope $end
$enddefinitions $end
#0
$dumpvars
x\
0[
bx Z
bx Y
bx X
bx W
bx V
xU
xT
xS
xR
xQ
bx P
bx O
bx N
bx M
0L
bx K
0J
b0 I
b0 H
b10000000 G
bx F
0E
xD
0C
0B
0A
bx @
bx ?
bx >
bx =
bx <
bx ;
bx :
bx 9
18
bx 7
06
05
bx 4
13
x2
bx0011 1
bx 0
bx /
bx .
0-
bx ,
bx +
1*
bx0011 )
bx (
bx '
0&
1%
1$
b0 #
0"
1!
$end
#5000000
08
bx0010 )
bx0010 1
0!
#10000000
12
b10xxxxxx (
b10xxxxxx 4
b0 :
b0xxxxxxxx <
0Q
0R
0S
b0 Y
b0 X
b10000001 9
b10000000 W
0U
18
bx0011 )
bx0011 1
1!
#15000000
08
bx0010 )
bx0010 1
0!
#20000000
18
bx0011 )
bx0011 1
1!
#25000000
08
bx0010 )
bx0010 1
0!
#30000000
18
bx0011 )
bx0011 1
1!
#35000000
08
bx0010 )
bx0010 1
0!
#40000000
18
bx0011 )
bx0011 1
1!
#45000000
08
bx0010 )
bx0010 1
0!
#50000000
18
bx0011 )
bx0011 1
1!
#55000000
08
bx0010 )
bx0010 1
0!
#60000000
18
bx0011 )
bx0011 1
1!
#65000000
08
bx0010 )
bx0010 1
0!
#70000000
18
bx0011 )
bx0011 1
1!
#75000000
08
bx0010 )
bx0010 1
0!
#80000000
18
bx0011 )
bx0011 1
1!
#85000000
08
bx0010 )
bx0010 1
0!
#90000000
b0xxxxxxxx +
b10000000 (
b10000000 4
b0 ;
b10000000 <
xB
b10 H
03
0%
18
bx0001 )
bx0001 1
1!
#95000000
bx000000 /
08
bx0000 )
bx0000 1
0!
#100000000
b10xxxxxxxx +
b10 ;
b11000010 (
b11000010 4
b10000000 <
b100 H
b10 :
xR
b10 X
18
bx0001 )
bx0001 1
1!
#105000000
b111010000000 '
b10000000 /
08
bx0000 )
bx0000 1
0!
#110000000
b1110xxxxxxxx >
bx +
b1110 7
b0 ;
b1110 ,
02
b0xxxx (
b0xxxx 4
b10000000 <
b101 H
b0 :
b100 X
18
b11100001 )
b11100001 1
1!
#115000000
08
b11100000 )
b11100000 1
0!
#120000000
b1000 7
b1000 ,
b10xxxx (
b10xxxx 4
b10000000 <
b110 H
b11101000xxxx >
b1 :
b1110xxxxxxxx N
b101 X
18
b10000001 )
b10000001 1
1!
#125000000
08
b10000000 )
b10000000 1
0!
#130000000
b0 7
b1110xxxxxxxx +
b10 ;
b0 ,
b1001110 (
b1001110 4
b1110 K
b10000001 G
b1 I
b10000000 <
b0 H
b111010000000 @
b111010000000 >
b10 :
b11101000xxxx N
b110 X
18
b1 )
b1 1
1!
#135000000
08
b0 )
b0 1
0!
#140000000
b1xxxxxxxx +
b1 ;
12
b10000001 (
b10000001 4
b0 K
b0 :
b0 =
b0 I
b10000001 <
b10 H
b111010000000 N
b1 Y
b0 X
b10000010 9
b10000001 W
b111010000000 P
18
b1 )
b1 1
1!
#145000000
b1010010000 '
b10000001 /
08
b0 )
b0 1
0!
#150000000
b10xxxxxxxx +
b10 ;
b11000010 (
b11000010 4
b1110 K
b100 H
b10 :
b10000001 <
b0 Y
b10 X
b0 M
18
b1 )
b1 1
1!
#155000000
08
b0 )
b0 1
0!
#160000000
b0xxxxxxxx +
b10 7
b1 ;
b10 ,
02
b0 (
b0 4
b0 K
b10000001 <
b101 H
b1010000000 >
b0 :
b100 X
18
b100001 )
b100001 1
1!
#165000000
08
b100000 )
b100000 1
0!
#170000000
b1001 7
b1000xxxxxxxx +
b1001 ,
b101000 (
b101000 4
b1000 K
b10000001 <
b110 H
b1010010000 >
b1 :
b1010000000 N
b101 X
18
b10010001 )
b10010001 1
1!
#175000000
08
b10010000 )
b10010000 1
0!
#180000000
b0 7
b10xxxxxxxx +
b10 ;
b0 ,
b1000010 (
b1000010 4
b10 K
b10000010 G
b1 I
b10000001 <
b0 H
b1010010000 @
b1010010000 >
b10 :
b1010010000 N
b110 X
18
b1 )
b1 1
1!
#185000000
08
b0 )
b0 1
0!
#190000000
b0xxxxxxxx +
b10000 ;
12
b10010000 (
b10010000 4
b0 K
b0 :
b10010000 <
b10 H
b1 Y
b0 X
b10000011 9
b10000010 W
b1010010000 P
18
b1 )
b1 1
1!
#195000000
b1 '
b10010000 /
08
b0 )
b0 1
0!
#200000000
b10xxxxxxxx +
b10 ;
b11000010 (
b11000010 4
b10 K
b10010000 <
b100 H
b10 :
b10 X
18
b1 )
b1 1
1!
#205000000
08
b0 )
b0 1
0!
#210000000
b0xxxxxxxx +
b10000 ;
02
b0 (
b0 4
b0 K
b10010000 <
b101 H
b10010000 >
b0 :
b100 X
18
b1 )
b1 1
1!
#215000000
08
b0 )
b0 1
0!
#220000000
b1001xxxxxxxx +
b101001 (
b101001 4
b1001 K
b10010000 <
b110 H
b0 >
b1 :
b10010000 N
b101 X
18
b1 )
b1 1
1!
#225000000
08
b0 )
b0 1
0!
#230000000
b1 >
b1 7
b0xxxxxxxx +
b10 ;
b1 ,
b1000000 (
b1000000 4
b0 K
b11 I
b10010000 <
b0 H
b10 :
b0 N
b110 X
18
b10001 )
b10001 1
1!
#235000000
08
b10000 )
b10000 1
0!
#240000000
b10xxxxxxxx +
12
b10000010 (
b10000010 4
b1 K
b0 I
b1 =
b10000010 <
1B
b10 H
b0 :
b1 N
b11 Y
b0 X
18
b10001 )
b10001 1
1!
#245000000
b1010010001 '
b10000010 /
08
b10000 )
b10000 1
0!
#250000000
b11000010 (
b11000010 4
b0 K
b100 H
b10 :
b10000010 <
1R
b0 Y
b10 X
b1 M
18
b10001 )
b10001 1
1!
#255000000
08
b10000 )
b10000 1
0!
#260000000
b1xxxxxxxx +
b10 7
b10 ,
02
b1 (
b1 4
b1 K
b10000010 <
b101 H
b1000000001 >
b0 :
b100 X
18
b100001 )
b100001 1
1!
#265000000
08
b100000 )
b100000 1
0!
#270000000
b1001 7
b0xxxxxxxx +
b1001 ,
b100000 (
b100000 4
b0 K
b10000010 <
b110 H
b1010010001 >
b1 :
b1000000001 N
b101 X
18
b10010001 )
b10010001 1
1!
#275000000
08
b10010000 )
b10010000 1
0!
#280000000
b1 7
b10xxxxxxxx +
b1 ,
b1000010 (
b1000010 4
b10 K
b10000011 G
b1 I
b10000010 <
b0 H
b1010010001 @
b1010010001 >
b10 :
b1010010001 N
b110 X
18
b10001 )
b10001 1
1!
#285000000
08
b10000 )
b10000 1
0!
#290000000
b1xxxxxxxx +
b10001 ;
12
b10010001 (
b10010001 4
b1 K
b0 :
b10010001 <
b10 H
b1 Y
b0 X
b10000100 9
b10000011 W
b1010010001 P
18
b10001 )
b10001 1
1!
#295000000
b10 '
b10010001 /
08
b10000 )
b10000 1
0!
#300000000
b10xxxxxxxx +
b10 ;
b11000010 (
b11000010 4
b10 K
b10010001 <
b100 H
b10 :
b10 X
18
b10001 )
b10001 1
1!
#305000000
08
b10000 )
b10000 1
0!
#310000000
b1xxxxxxxx +
b0 7
b10001 ;
b0 ,
02
b1 (
b1 4
b1 K
b10010001 <
b101 H
b10010001 >
b0 :
b100 X
18
b1 )
b1 1
1!
#315000000
08
b0 )
b0 1
0!
#320000000
b1001xxxxxxxx +
b101001 (
b101001 4
b1001 K
b10010001 <
b110 H
b1 >
b1 :
b10010001 N
b101 X
18
b1 )
b1 1
1!
#325000000
08
b0 )
b0 1
0!
#330000000
b10 7
b0xxxxxxxx +
b10 ;
b10 ,
b1000000 (
b1000000 4
b0 K
b11 I
b10010001 <
b0 H
b10 >
b10 :
b1 N
b110 X
18
b100001 )
b100001 1
1!
#335000000
08
b100000 )
b100000 1
0!
#340000000
b11xxxxxxxx +
b11 ;
12
b10000011 (
b10000011 4
b10 K
b0 I
b11 =
b10000011 <
b10 H
b0 :
b10 N
b11 Y
b0 X
18
b100001 )
b100001 1
1!
#345000000
b110000100100 '
b10000011 /
08
b100000 )
b100000 1
0!
#350000000
b10xxxxxxxx +
b10 ;
b11000010 (
b11000010 4
b0 K
b100 H
b10 :
b10000011 <
b0 Y
b10 X
b11 M
18
b100001 )
b100001 1
1!
#355000000
08
b100000 )
b100000 1
0!
#360000000
b1100 7
b11 ;
b1100 ,
02
b10 (
b10 4
b10 K
b10000011 <
b101 H
b110000000010 >
b0 :
b100 X
18
b11000001 )
b11000001 1
1!
#365000000
08
b11000000 )
b11000000 1
0!
#370000000
b10 7
b0xxxxxxxx +
b10 ,
b100000 (
b100000 4
b0 K
b10000011 <
b110 H
b110000100010 >
b1 :
b110000000010 N
b101 X
18
b100001 )
b100001 1
1!
#375000000
08
b100000 )
b100000 1
0!
#380000000
b110000100100 >
b100 7
b1100xxxxxxxx +
b10 ;
b100 ,
b1001100 (
b1001100 4
b1100 K
b10000100 G
b1 I
b10000011 <
b0 H
b110000100100 @
b10 :
b110000100010 N
b110 X
18
b1000001 )
b1000001 1
1!
#385000000
08
b1000000 )
b1000000 1
0!
#390000000
b10xxxxxxxx +
12
b100 K
b10000010 (
b10000010 4
b11 >
b0 :
1[
b100 I
1L
b11 Z
bx000010 <
b10 H
b110000100100 N
b1 Y
b0 X
b10000101 9
b10000100 W
b110000100100 P
18
b1000001 )
b1000001 1
1!
#395000000
b1010010001 '
b10000010 /
08
b1000000 )
b1000000 1
0!
#400000000
bx +
bx ;
b11xxxxxx (
b11xxxxxx 4
b0 K
1[
1L
bx <
bx Z
b111 H
b10 :
b11 N
b100 Y
b10 X
18
b1000001 )
b1000001 1
1!
#405000000
bx '
bx000010 /
08
b1000000 )
b1000000 1
0!
#410000000
b10 7
b100xxxxxxxx +
b10 ,
b1110100 (
b1110100 4
02
b100 K
bx <
1[
1L
b100 H
1D
b11 :
b111 X
18
b100001 )
b100001 1
1!
#415000000
08
b100000 )
b100000 1
0!
#420000000
b0 7
b11xxxxxxxx +
b0 ,
b10011 (
b10011 4
b11 K
bx <
1[
1L
b101 H
b0 :
1T
b100 X
b10100 .
1-
18
b1 )
b1 1
1!
#425000000
08
b0 )
b0 1
0!
#430000000
b110000 (
b110000 4
b0 K
bx <
1[
1L
b110 H
b1 :
b101 X
b0xxxx0011 +
bx0011 0
18
b1 )
b1 1
1!
#435000000
08
b0 )
b0 1
0!
#440000000
0*
b1010000 (
b1010000 4
b0 I
bx <
1[
1L
b0 H
b10 :
b110 X
b11 +
b11 0
18
b1 )
b1 1
1!
#445000000
08
b0 )
b0 1
0!
#450000000
1*
b10000000011 +
b100 ;
12
b10000100 (
b10000100 4
b11 K
b10000100 <
0[
0L
b11 >
b10 H
b0 :
b0 Y
b0 X
18
b1 )
b1 1
1!
#455000000
bx000100 /
08
b0 )
b0 1
0!
#460000000
b1000000011 +
b10 ;
b11000010 (
b11000010 4
b0 K
b10000100 <
b100 H
b10 :
b10 X
0-
18
b1 )
b1 1
1!
#465000000
b10010000 '
b10000100 /
08
b0 )
b0 1
0!
#470000000
b1100000011 +
b100 ;
02
b11 (
b11 4
b11 K
b10000100 <
b101 H
b0 :
b100 X
18
b1 )
b1 1
1!
#475000000
08
b0 )
b0 1
0!
#480000000
b10010011 >
b1001 7
b11 +
b1001 ,
b100000 (
b100000 4
b0 K
b10000100 <
b110 H
b1 :
b101 X
18
b10010001 )
b10010001 1
1!
#485000000
08
b10010000 )
b10010000 1
0!
#490000000
b0 7
b10 ;
b0 ,
b1000000 (
b1000000 4
b10000101 G
b1 I
b10000100 <
b0 H
b10010000 @
b10010000 >
b10 :
b10010011 N
b110 X
18
b1 )
b1 1
1!
#495000000
08
b0 )
b0 1
0!
#500000000
b10000 ;
12
b10010000 (
b10010000 4
b0 :
b10010000 <
b10 H
b10010000 N
b1 Y
b0 X
b10000110 9
b10000101 W
b10010000 P
18
b1 )
b1 1
1!
#505000000
b1 '
b10010000 /
08
b0 )
b0 1
0!
#510000000
b1000000011 +
b10 ;
b11000010 (
b11000010 4
b10010000 <
b100 H
b10 :
b10 X
18
b1 )
b1 1
1!
#515000000
08
b0 )
b0 1
0!
#520000000
b11 +
b10000 ;
02
b0 (
b0 4
b10010000 <
b101 H
b0 :
b100 X
18
b1 )
b1 1
1!
#525000000
08
b0 )
b0 1
0!
#530000000
b100100000011 +
b101001 (
b101001 4
b1001 K
b10010000 <
b110 H
b0 >
b1 :
b101 X
18
b1 )
b1 1
1!
#535000000
08
b0 )
b0 1
0!
#540000000
b1 >
b1 7
b11 +
b10 ;
b1 ,
b1000000 (
b1000000 4
b0 K
b11 I
b10010000 <
b0 H
b10 :
b0 N
b110 X
18
b10001 )
b10001 1
1!
#545000000
08
b10000 )
b10000 1
0!
#550000000
b10100000011 +
b101 ;
12
b10000101 (
b10000101 4
b1 K
b0 I
b1 =
b10000101 <
b10 H
b0 :
b1 N
b11 Y
b0 X
18
b10001 )
b10001 1
1!
#555000000
b110000100100 '
b10000101 /
08
b10000 )
b10000 1
0!
#560000000
b1000000011 +
b10 ;
b11000010 (
b11000010 4
b0 K
b100 H
b10 :
b10000101 <
b0 Y
b10 X
b1 M
18
b10001 )
b10001 1
1!
#565000000
08
b10000 )
b10000 1
0!
#570000000
b100000011 +
b1100 7
b101 ;
b1100 ,
02
b1 (
b1 4
b1 K
b10000101 <
b101 H
b110000000001 >
b0 :
b100 X
18
b11000001 )
b11000001 1
1!
#575000000
08
b11000000 )
b11000000 1
0!
#580000000
b10 7
b11 +
b10 ,
b100000 (
b100000 4
b0 K
b10000101 <
b110 H
b110000100001 >
b1 :
b110000000001 N
b101 X
18
b100001 )
b100001 1
1!
#585000000
08
b100000 )
b100000 1
0!
#590000000
b100 7
b110000000011 +
b10 ;
b100 ,
b1001100 (
b1001100 4
b1100 K
b10000110 G
b1 I
b10000101 <
b0 H
b110000100100 @
b110000100100 >
b10 :
b110000100001 N
b110 X
18
b1000001 )
b1000001 1
1!
#595000000
08
b1000000 )
b1000000 1
0!
#600000000
b1000000011 +
12
b100 K
b10000010 (
b10000010 4
b1 >
b0 :
1[
b100 I
1L
b1 Z
bx000010 <
b10 H
b110000100100 N
b1 Y
b0 X
b10000111 9
b10000110 W
b110000100100 P
18
b1000001 )
b1000001 1
1!
#605000000
b1010010001 '
b10000010 /
08
b1000000 )
b1000000 1
0!
#610000000
bx00000011 +
bx ;
b11xxxxxx (
b11xxxxxx 4
b0 K
1[
1L
bx <
bx Z
b111 H
b10 :
b1 N
b100 Y
b10 X
18
b1000001 )
b1000001 1
1!
#615000000
bx '
bx000010 /
08
b1000000 )
b1000000 1
0!
#620000000
b10 7
b10000000011 +
b10 ,
b1110100 (
b1110100 4
02
b100 K
bx <
1[
1L
b100 H
1D
b11 :
b111 X
18
b100001 )
b100001 1
1!
#625000000
08
b100000 )
b100000 1
0!
#630000000
b0 7
b100000011 +
b0 ,
b10001 (
b10001 4
b1 K
bx <
1[
1L
b101 H
b0 :
b100 X
1-
18
b1 )
b1 1
1!
#635000000
08
b0 )
b0 1
0!
#640000000
b110000 (
b110000 4
b0 K
bx <
1[
1L
b110 H
b1 :
b101 X
b1 +
b1 0
18
b1 )
b1 1
1!
#645000000
08
b0 )
b0 1
0!
#650000000
0*
b1010000 (
b1010000 4
b0 I
bx <
1[
1L
b0 H
b10 :
b110 X
18
b1 )
b1 1
1!
#655000000
08
b0 )
b0 1
0!
#660000000
1*
b11000000001 +
b110 ;
12
b10000110 (
b10000110 4
b1 K
b10000110 <
0[
0L
b1 >
b10 H
b0 :
b0 Y
b0 X
18
b1 )
b1 1
1!
#665000000
bx000110 /
08
b0 )
b0 1
0!
#670000000
b1000000001 +
b10 ;
b11000010 (
b11000010 4
b0 K
b10000110 <
b100 H
b10 :
b10 X
0-
18
b1 )
b1 1
1!
#675000000
b1010010001 '
b10000110 /
08
b0 )
b0 1
0!
#680000000
b1000000001 >
b100000001 +
b10 7
b110 ;
b10 ,
02
b1 (
b1 4
b1 K
b10000110 <
b101 H
b0 :
b100 X
18
b100001 )
b100001 1
1!
#685000000
08
b100000 )
b100000 1
0!
#690000000
b1001 7
b1 +
b1001 ,
b100000 (
b100000 4
b0 K
b10000110 <
b110 H
b1010010001 >
b1 :
b1000000001 N
b101 X
18
b10010001 )
b10010001 1
1!
#695000000
08
b10010000 )
b10010000 1
0!
#700000000
b1 7
b1000000001 +
b10 ;
b1 ,
b1000010 (
b1000010 4
b10 K
b10000111 G
b1 I
b10000110 <
b0 H
b1010010001 @
b1010010001 >
b10 :
b1010010001 N
b110 X
18
b10001 )
b10001 1
1!
#705000000
08
b10000 )
b10000 1
0!
#710000000
b100000001 +
b10001 ;
12
b10010001 (
b10010001 4
b1 K
b0 :
b10010001 <
b10 H
b1 Y
b0 X
b10001000 9
b10000111 W
b1010010001 P
18
b10001 )
b10001 1
1!
#715000000
b10 '
b10010001 /
08
b10000 )
b10000 1
0!
#720000000
b1000000001 +
b10 ;
b11000010 (
b11000010 4
b10 K
b10010001 <
b100 H
b10 :
b10 X
18
b10001 )
b10001 1
1!
#725000000
08
b10000 )
b10000 1
0!
#730000000
b100000001 +
b0 7
b10001 ;
b0 ,
02
b1 (
b1 4
b1 K
b10010001 <
b101 H
b10010001 >
b0 :
b100 X
18
b1 )
b1 1
1!
#735000000
08
b0 )
b0 1
0!
#740000000
b100100000001 +
b101001 (
b101001 4
b1001 K
b10010001 <
b110 H
b1 >
b1 :
b10010001 N
b101 X
18
b1 )
b1 1
1!
#745000000
08
b0 )
b0 1
0!
#750000000
b10 7
b1 +
b10 ;
b10 ,
b1000000 (
b1000000 4
b0 K
b11 I
b10010001 <
b0 H
b10 >
b10 :
b1 N
b110 X
18
b100001 )
b100001 1
1!
#755000000
08
b100000 )
b100000 1
0!
#760000000
b11100000001 +
b111 ;
12
b10000111 (
b10000111 4
b10 K
b0 I
b11 =
b10000111 <
b10 H
b0 :
b10 N
b11 Y
b0 X
18
b100001 )
b100001 1
1!
#765000000
b1010010001 '
b10000111 /
08
b100000 )
b100000 1
0!
#770000000
b1000000001 +
b10 ;
b11000010 (
b11000010 4
b0 K
b100 H
b10 :
b10000111 <
b0 Y
b10 X
b11 M
18
b100001 )
b100001 1
1!
#775000000
08
b100000 )
b100000 1
0!
#780000000
b111 ;
02
b10 (
b10 4
b10 K
b10000111 <
b101 H
b1000000010 >
b0 :
b100 X
18
b100001 )
b100001 1
1!
#785000000
08
b100000 )
b100000 1
0!
#790000000
b1001 7
b1 +
b1001 ,
b100000 (
b100000 4
b0 K
b10000111 <
b110 H
b1010010010 >
b1 :
b1000000010 N
b101 X
18
b10010001 )
b10010001 1
1!
#795000000
08
b10010000 )
b10010000 1
0!
#800000000
b1 7
b1000000001 +
b10 ;
b1 ,
b1000010 (
b1000010 4
b10 K
b10001000 G
b1 I
b10000111 <
b0 H
b1010010001 @
b1010010001 >
b10 :
b1010010010 N
b110 X
18
b10001 )
b10001 1
1!
#805000000
08
b10000 )
b10000 1
0!
#810000000
b100000001 +
b10001 ;
12
b10010001 (
b10010001 4
b1 K
b10 H
b0 :
b10010001 <
b1010010001 N
b1 Y
b0 X
b10001001 9
b10001000 W
18
b10001 )
b10001 1
1!
#815000000
b10 '
b10010001 /
08
b10000 )
b10000 1
0!
#820000000
b1000000001 +
b10 ;
b11000010 (
b11000010 4
b10 K
b10010001 <
b100 H
b10 :
b10 X
18
b10001 )
b10001 1
1!
#825000000
08
b10000 )
b10000 1
0!
#830000000
b100000001 +
b0 7
b10001 ;
b0 ,
02
b1 (
b1 4
b1 K
b10010001 <
b101 H
b10010001 >
b0 :
b100 X
18
b1 )
b1 1
1!
#835000000
08
b0 )
b0 1
0!
#840000000
b100100000001 +
b101001 (
b101001 4
b1001 K
b10010001 <
b110 H
b1 >
b1 :
b10010001 N
b101 X
18
b1 )
b1 1
1!
#845000000
08
b0 )
b0 1
0!
#850000000
b10 7
b1 +
b10 ;
b10 ,
b1000000 (
b1000000 4
b0 K
b11 I
b10010001 <
b0 H
b10 >
b10 :
b1 N
b110 X
18
b100001 )
b100001 1
1!
#855000000
08
b100000 )
b100000 1
0!
#860000000
b100000000001 +
b1000 ;
12
b10001000 (
b10001000 4
b10 K
b0 I
b101 =
b10001000 <
b10 H
b0 :
b10 N
b11 Y
b0 X
18
b100001 )
b100001 1
1!
#865000000
b11010010010 '
b10001000 /
08
b100000 )
b100000 1
0!
#870000000
b1000000001 +
b10 ;
b11000010 (
b11000010 4
b0 K
b100 H
b10 :
b10001000 <
b0 Y
b10 X
b101 M
18
b100001 )
b100001 1
1!
#875000000
08
b100000 )
b100000 1
0!
#880000000
b110 7
b1000 ;
b110 ,
02
b10 (
b10 4
b10 K
b10001000 <
b101 H
b11000000010 >
b0 :
b100 X
18
b1100001 )
b1100001 1
1!
#885000000
08
b1100000 )
b1100000 1
0!
#890000000
b1001 7
b1 +
b1001 ,
b100000 (
b100000 4
b0 K
b10001000 <
b110 H
b11010010010 >
b1 :
b11000000010 N
b101 X
18
b10010001 )
b10010001 1
1!
#895000000
08
b10010000 )
b10010000 1
0!
#900000000
b10 7
b11000000001 +
b10 ;
b10 ,
b1000110 (
b1000110 4
b110 K
b10001001 G
b1 I
b10001000 <
b0 H
b11010010010 @
b11010010010 >
b10 :
b11010010010 N
b110 X
18
b100001 )
b100001 1
1!
#905000000
08
b100000 )
b100000 1
0!
#910000000
b1000000001 +
b10010 ;
12
b10 K
b10010010 (
b10010010 4
b101 >
b0 :
b100 I
b0 =
1[
b101 Z
b10010010 ?
b10010010 <
b10 H
b1 Y
b0 X
b10001010 9
b10001001 W
b11010010010 P
18
b100001 )
b100001 1
1!
#915000000
b10011001 '
b10010010 /
08
b100000 )
b100000 1
0!
#920000000
b10 ;
b11000010 (
b11000010 4
b0 K
b100 H
b10 :
1[
b10010010 <
bx Z
b10010010 O
b101 N
b100 Y
b10 X
b0 M
18
b100001 )
b100001 1
1!
#925000000
08
b100000 )
b100000 1
0!
#930000000
b10100000001 +
b0 7
b10010 ;
b0 ,
02
b10101 (
b10101 4
b101 K
1[
b10010010 <
b101 H
b0 :
b100 X
18
b1 )
b1 1
1!
#935000000
08
b0 )
b0 1
0!
#940000000
b1001 7
b1001 ,
b110000 (
b110000 4
b0 K
1[
b10010010 <
b110 H
b1 :
b101 X
b101 +
b101 0
18
b10010001 )
b10010001 1
1!
#945000000
08
b10010000 )
b10010000 1
0!
#950000000
b10 ;
b1010000 (
b1010000 4
b0 I
1[
b10010010 <
b0 H
b10 :
b110 X
18
b10010001 )
b10010001 1
1!
#955000000
08
b10010000 )
b10010000 1
0!
#960000000
b100100000101 +
b1001 ;
12
b10001001 (
b10001001 4
b101 K
b101 7
0[
b10001001 <
b101 >
b10 H
b0 :
b101 ,
b0 Y
b0 X
b101 '
18
b1010001 )
b1010001 1
1!
#965000000
b110000100100 '
b10001001 /
08
b1010000 )
b1010000 1
0!
#970000000
b1000000101 +
b10 ;
b11000010 (
b11000010 4
b0 K
b10001001 <
b100 H
b10 :
b10 X
18
b1010001 )
b1010001 1
1!
#975000000
08
b1010000 )
b1010000 1
0!
#980000000
b10100000101 +
b1100 7
b1001 ;
b1100 ,
02
b101 (
b101 4
b101 K
b10001001 <
b101 H
b110000000101 >
b0 :
b100 X
18
b11000001 )
b11000001 1
1!
#985000000
08
b11000000 )
b11000000 1
0!
#990000000
b10 7
b101 +
b10 ,
b100000 (
b100000 4
b0 K
b10001001 <
b110 H
b110000100101 >
b1 :
b110000000101 N
b101 X
18
b100001 )
b100001 1
1!
#995000000
08
b100000 )
b100000 1
0!
#1000000000
b100 7
b110000000101 +
b10 ;
b100 ,
b1001100 (
b1001100 4
b1100 K
b10001010 G
b1 I
b10001001 <
b0 H
b110000100100 @
b110000100100 >
b10 :
b110000100101 N
b110 X
18
b1000001 )
b1000001 1
1!
#1005000000
08
b1000000 )
b1000000 1
0!
#1010000000
b1000000101 +
12
b100 K
b10000010 (
b10000010 4
b0 >
b0 :
1[
b100 I
1L
b0 Z
bx000010 <
b10 H
b110000100100 N
b1 Y
b0 X
b10001011 9
b10001010 W
b110000100100 P
18
b1000001 )
b1000001 1
1!
#1015000000
b1010010001 '
b10000010 /
08
b1000000 )
b1000000 1
0!
#1020000000
b11000010 (
b11000010 4
b0 K
1[
1L
b10010010 <
bx Z
b111 H
b10 :
b0 N
b100 Y
b10 X
18
b1000001 )
b1000001 1
1!
#1025000000
08
b1000000 )
b1000000 1
0!
#1030000000
0C
b10000000101 +
b10 7
b10 ,
b1110100 (
b1110100 4
02
b100 K
1[
1L
b10010010 <
b100 H
1D
b11 :
b111 X
18
b100001 )
b100001 1
1!
#1035000000
08
b100000 )
b100000 1
0!
#1040000000
b0 7
b101 +
b10010 ;
b0 ,
b10000 (
b10000 4
b0 K
1[
1L
b10010010 <
b101 H
b0 :
b100 X
1-
18
b1 )
b1 1
1!
#1045000000
08
b0 )
b0 1
0!
#1050000000
b110000 (
b110000 4
1[
1L
b10010010 <
b110 H
b1 :
b101 X
b0 +
b0 0
18
b1 )
b1 1
1!
#1055000000
08
b0 )
b0 1
0!
#1060000000
0*
b10 ;
b1010000 (
b1010000 4
b0 I
1[
1L
b10010010 <
b0 H
b10 :
b110 X
18
b1 )
b1 1
1!
#1065000000
08
b0 )
b0 1
0!
#1070000000
1*
b101000000000 +
b1010 ;
12
b10001010 (
b10001010 4
0[
0L
b10001010 <
b0 >
b10 H
b0 :
b0 Y
b0 X
18
b1 )
b1 1
1!
#1075000000
b1010010010 '
b10001010 /
08
b0 )
b0 1
0!
#1080000000
b1000000000 +
b10 ;
b11000010 (
b11000010 4
b10001010 <
b100 H
b10 :
b10 X
0-
18
b1 )
b1 1
1!
#1085000000
08
b0 )
b0 1
0!
#1090000000
b1000000000 >
b0 +
b10 7
b1010 ;
b10 ,
02
b0 (
b0 4
b10001010 <
b101 H
b0 :
b100 X
18
b100001 )
b100001 1
1!
#1095000000
08
b100000 )
b100000 1
0!
#1100000000
b1001 7
b1001 ,
b100000 (
b100000 4
b10001010 <
b110 H
b1010010000 >
b1 :
b1000000000 N
b101 X
18
b10010001 )
b10010001 1
1!
#1105000000
08
b10010000 )
b10010000 1
0!
#1110000000
b10 7
b1000000000 +
b10 ;
b10 ,
b1000010 (
b1000010 4
b10 K
b10001011 G
b1 I
b10001010 <
b0 H
b1010010010 @
b1010010010 >
b10 :
b1010010000 N
b110 X
18
b100001 )
b100001 1
1!
#1115000000
08
b100000 )
b100000 1
0!
#1120000000
b10010 ;
12
b10010010 (
b10010010 4
b0 :
b10010010 <
b10 H
b1010010010 N
b1 Y
b0 X
b10001100 9
b10001011 W
b1010010010 P
18
b100001 )
b100001 1
1!
#1125000000
b101 '
b10010010 /
08
b100000 )
b100000 1
0!
#1130000000
b10 ;
b11000010 (
b11000010 4
b10010010 <
b100 H
b10 :
b10 X
18
b100001 )
b100001 1
1!
#1135000000
08
b100000 )
b100000 1
0!
#1140000000
b10010010 >
b0 7
b10010 ;
b0 ,
02
b10 (
b10 4
b10010010 <
b101 H
b0 :
b100 X
18
b1 )
b1 1
1!
#1145000000
08
b0 )
b0 1
0!
#1150000000
b100100000000 +
b101001 (
b101001 4
b1001 K
b10010010 <
b110 H
b10 >
b1 :
b10010010 N
b101 X
18
b1 )
b1 1
1!
#1155000000
08
b0 )
b0 1
0!
#1160000000
b101 7
b0 +
b10 ;
b101 ,
b1000000 (
b1000000 4
b0 K
b11 I
b10010010 <
b0 H
b101 >
b10 :
b10 N
b110 X
18
b1010001 )
b1010001 1
1!
#1165000000
08
b1010000 )
b1010000 1
0!
